<define-tag pagetitle>DSA-4833-1 gst-plugins-bad1.0</define-tag>
<define-tag report_date>2021-1-18</define-tag>
<define-tag secrefs>CVE-2021-3185</define-tag>
<define-tag packages>gst-plugins-bad1.0</define-tag>
<define-tag isvulnerable>yes</define-tag>
<define-tag fixed>yes</define-tag>
<define-tag fixed-section>no</define-tag>

#use wml::debian::security



</dl>
