<define-tag pagetitle>DLA-1124-1 dnsmasq</define-tag>
<define-tag report_date>2017-10-6</define-tag>
<define-tag secrefs>CVE-2017-14491 CVE-2017-14492 CVE-2017-14494</define-tag>
<define-tag packages>dnsmasq</define-tag>
<define-tag isvulnerable>yes</define-tag>
<define-tag fixed>yes</define-tag>
<define-tag fixed-section>no</define-tag>

#use wml::debian::security

