<define-tag pagetitle>DLA-2258-1 zziplib</define-tag>
<define-tag report_date>2020-6-28</define-tag>
<define-tag secrefs>CVE-2018-6381 CVE-2018-6484 CVE-2018-6540 CVE-2018-6541 CVE-2018-6869 CVE-2018-7725 CVE-2018-7726 CVE-2018-16548</define-tag>
<define-tag packages>zziplib</define-tag>
<define-tag isvulnerable>yes</define-tag>
<define-tag fixed>yes</define-tag>
<define-tag fixed-section>no</define-tag>

#use wml::debian::security

