<define-tag pagetitle>DLA-1556-1 paramiko</define-tag>
<define-tag report_date>2018-10-27</define-tag>
<define-tag secrefs>CVE-2018-7750 CVE-2018-1000805</define-tag>
<define-tag packages>paramiko</define-tag>
<define-tag isvulnerable>yes</define-tag>
<define-tag fixed>yes</define-tag>
<define-tag fixed-section>no</define-tag>

#use wml::debian::security

