<define-tag pagetitle>DSA-4479-1 firefox-esr</define-tag>
<define-tag report_date>2019-7-11</define-tag>
<define-tag secrefs>CVE-2019-9811 CVE-2019-11709 CVE-2019-11711 CVE-2019-11712 CVE-2019-11713 CVE-2019-11715 CVE-2019-11717 CVE-2019-11730 CVE-2019-11719 CVE-2019-11729</define-tag>
<define-tag packages>firefox-esr</define-tag>
<define-tag isvulnerable>yes</define-tag>
<define-tag fixed>yes</define-tag>
<define-tag fixed-section>no</define-tag>

#use wml::debian::security



</dl>
