<define-tag pagetitle>DLA-1930-1 linux</define-tag>
<define-tag report_date>2019-09-25</define-tag>
<define-tag secrefs>CVE-2016-10905 CVE-2018-20976 CVE-2018-21008 CVE-2019-0136 CVE-2019-9506 CVE-2019-14814 CVE-2019-14815 CVE-2019-14816 CVE-2019-14821 CVE-2019-14835 CVE-2019-15117 CVE-2019-15118 CVE-2019-15211 CVE-2019-15212 CVE-2019-15215 CVE-2019-15218 CVE-2019-15219 CVE-2019-15220 CVE-2019-15221 CVE-2019-15292 CVE-2019-15807 CVE-2019-15917 CVE-2019-15926</define-tag>
<define-tag packages>linux</define-tag>
<define-tag isvulnerable>yes</define-tag>
<define-tag fixed>yes</define-tag>
<define-tag fixed-section>no</define-tag>

#use wml::debian::security

