<define-tag pagetitle>DLA-1968-1 imagemagick</define-tag>
<define-tag report_date>2019-10-21</define-tag>
<define-tag secrefs>CVE-2019-11470 CVE-2019-14981 CVE-2019-15139 CVE-2019-15140</define-tag>
<define-tag packages>imagemagick</define-tag>
<define-tag isvulnerable>yes</define-tag>
<define-tag fixed>yes</define-tag>
<define-tag fixed-section>no</define-tag>

#use wml::debian::security

