<define-tag pagetitle>DLA-1639-1 systemd</define-tag>
<define-tag report_date>2019-1-23</define-tag>
<define-tag secrefs>CVE-2018-16864 CVE-2018-16865 Bug#918841 Bug#918848</define-tag>
<define-tag packages>systemd</define-tag>
<define-tag isvulnerable>yes</define-tag>
<define-tag fixed>yes</define-tag>
<define-tag fixed-section>no</define-tag>

#use wml::debian::security

