<define-tag pagetitle>DLA-686-1 libxtst</define-tag>
<define-tag report_date>2016-10-26</define-tag>
<define-tag secrefs>CVE-2016-7951 CVE-2016-7952 Bug#840444</define-tag>
<define-tag packages>libxtst</define-tag>
<define-tag isvulnerable>yes</define-tag>
<define-tag fixed>yes</define-tag>
<define-tag fixed-section>no</define-tag>

#use wml::debian::security

